Utilities to Extract Text Data from en-net
…
To get a list of topics for a particular theme, we use the get_theme_topics() function as follows:

## Load dplyr to facilitate data manipulation
library(dplyr)

## Extract data from "Coverage assessment" theme
get_themes() %>%
  filter(themes == "Coverage assessment") %>%
  select(links) %>%
  as.character() %>%
  get_theme_topics()

which results in

#> # A tibble: 94 x 7
#>    Theme    Topic                 Views Replies Author   Posted     Link        
#>    <chr>    <chr>                 <int>   <int> <chr>    <date>     <chr>       
#>  1 Coverag Resources for covera 14925      11 Tamsin  2011-12-06 https://www
#>  2 Coverag SLEAC                  1172       2 Anonymo 2021-01-12 https://www
#>  3 Coverag Use of single covera  4941       7 Hugh Lo 2019-11-10 https://www
#>  4 Coverag Real and theoretical  4180       3 Abdul    2019-10-10 https://www
#>  5 Coverag Single Coverage for   3004       4 Ben All 2019-07-05 https://www
#>  6 Coverag Cox's Bazar Refugee   3245       4 Hugh Lo 2019-03-28 https://www
#>  7 Coverag Wide Area Survey (St  2905       2 Anonymo 2019-03-09 https://www
#>  8 Coverag Disconnection betwee  2882       2 Tammam  2019-03-03 https://www
#>  9 Coverag Can we classify the   3059       2 Anonymo 2018-11-18 https://www
#> 10 Coverag Routine monitoring d  2947       0 Anonymo 2018-11-14 https://www
#> #  with 84 more rows

The resulting table contains information on all the topics within the Coverage assessment thematic area including URL links to the corresponding webpages for each topic

To get a list of topics for multiple themes, we use the get_themes_topics() function as follows:

## Extract data from "Coverage assessment" theme and "Food assistance" theme
get_themes() %>%
  filter(themes %in% c("Coverage assessment", "Food assistance")) %>%
  get_themes_topics()

which results in

#> # A tibble: 126 x 7
#>    Theme    Topic                 Views Replies Author   Posted     Link        
#>    <chr>    <chr>                 <int>   <int> <chr>    <date>     <chr>       
#>  1 Coverag Resources for covera 14925      11 Tamsin  2011-12-06 https://www
#>  2 Coverag SLEAC                  1172       2 Anonymo 2021-01-12 https://www
#>  3 Coverag Use of single covera  4941       7 Hugh Lo 2019-11-10 https://www
#>  4 Coverag Real and theoretical  4180       3 Abdul    2019-10-10 https://www
#>  5 Coverag Single Coverage for   3004       4 Ben All 2019-07-05 https://www
#>  6 Coverag Cox's Bazar Refugee   3245       4 Hugh Lo 2019-03-28 https://www
#>  7 Coverag Wide Area Survey (St  2905       2 Anonymo 2019-03-09 https://www
#>  8 Coverag Disconnection betwee  2882       2 Tammam  2019-03-03 https://www
#>  9 Coverag Can we classify the   3059       2 Anonymo 2018-11-18 https://www
#> 10 Coverag Routine monitoring d  2947       0 Anonymo 2018-11-14 https://www
#> #  with 116 more rows
…
The resulting table contains information on all the discussions within the topic on Resources for coverage assessment within the thematic area of Coverage assessment including the text data on the question and the ensuing reply/replies to the question.

To get a list of discussions for a set of topics, we use the get_topics_discussions() function as follows:

get_themes() %>%
  filter(themes %in% c("Coverage assessment", "Food assistance")) %>%
  get_themes_topics() %>%
  get_topics_discussions()

which results in

#> # A tibble: 509 x 10
#>    theme  topic user  userCode job   role  date_time           type  code  post 
#>    <chr>  <chr> <chr> <chr>    <chr> <chr> <dttm>              <chr> <chr> <chr>
#>  1 Cover Reso Tams user24   en-n Foru 2011-12-06 11:59:00 ques 574   "Dea
#>  2 Cover Reso Mark user31   Cons Freq 2011-12-06 13:24:00 answ 1536  "And
#>  3 Cover Reso Erne user999  Kati Tech 2011-12-22 18:02:00 answ 1603  "Wor
#>  4 Cover Reso Saul user1000 Dire Tech 2012-01-11 08:59:00 answ 1664  "And
#>  5 Cover Reso Mark user31   Cons Freq 2012-05-01 12:29:00 answ 2076  "Jus
#>  6 Cover Reso Erne user999  Kati Tech 2012-05-26 09:48:00 answ 2180  "We 
#>  7 Cover Reso Erne user999  Kati Tech 2012-07-05 11:19:00 answ 2278  "Dea
#>  8 Cover Reso Mark user31   Cons Freq 2012-09-17 16:40:00 answ 2442  "Upd
#>  9 Cover Reso Mark user31   Cons Freq 2012-11-01 16:19:00 answ 2615  "And
#> 10 Cover Reso Mark user31   Cons Freq 2013-04-30 17:19:00 answ 3288  "The
#> #  with 499 more rows
…
