Utilities to Extract and Analyse Text Data From the Emergency Nutrition Network (en-net) Forum • ennet
…
To get a list of topics for a particular theme, we use the get_theme_topics() function as follows:

## Load dplyr to facilitate data manipulation
library(dplyr)

## Extract data from "Coverage assessment" theme
get_themes() %>%
  filter(themes == "Coverage assessment") %>%
  select(links) %>%
  as.character() %>%
  get_theme_topics()

which results in

#> # A tibble: 93 x 7
#>    Theme    Topic                 Views Replies Author   Posted     Link        
#>    <chr>    <chr>                 <int>   <int> <chr>    <date>     <chr>       
#>  1 Coverag… Resources for covera…  9547      11 Tamsin … 2011-12-06 https://www…
#>  2 Coverag… Use of single covera…  2246       7 Hugh Lo… 2019-11-10 https://www…
#>  3 Coverag… Real and theoretical…  2013       3 Abdul    2019-10-10 https://www…
#>  4 Coverag… Single Coverage for …  1799       4 Ben All… 2019-07-05 https://www…
#>  5 Coverag… Cox's Bazar Refugee …  2044       4 Hugh Lo… 2019-03-28 https://www…
#>  6 Coverag… Wide Area Survey (St…  1717       2 Anonymo… 2019-03-09 https://www…
#>  7 Coverag… Disconnection betwee…  1700       2 Tammam … 2019-03-03 https://www…
#>  8 Coverag… Can we classify the …  1878       2 Anonymo… 2018-11-18 https://www…
#>  9 Coverag… Routine monitoring d…  1780       0 Anonymo… 2018-11-14 https://www…
#> 10 Coverag… SQUEAC/coverage surv…  2172       1 Anonymo… 2018-10-05 https://www…
#> # … with 83 more rows

The resulting table contains information on all the topics within the Coverage assessment thematic area including URL links to the corresponding webpages for each topic

To get a list of topics for multiple themes, we use the get_themes_topics() function as follows:

## Extract data from "Coverage assessment" theme and "Food assistance" theme
get_themes() %>%
  filter(themes %in% c("Coverage assessment", "Food assistance")) %>%
  get_themes_topics()

which results in

#> # A tibble: 124 x 7
#>    Theme    Topic                 Views Replies Author   Posted     Link        
#>    <chr>    <chr>                 <int>   <int> <chr>    <date>     <chr>       
#>  1 Coverag… Resources for covera…  9547      11 Tamsin … 2011-12-06 https://www…
#>  2 Coverag… Use of single covera…  2246       7 Hugh Lo… 2019-11-10 https://www…
#>  3 Coverag… Real and theoretical…  2013       3 Abdul    2019-10-10 https://www…
#>  4 Coverag… Single Coverage for …  1799       4 Ben All… 2019-07-05 https://www…
#>  5 Coverag… Cox's Bazar Refugee …  2044       4 Hugh Lo… 2019-03-28 https://www…
#>  6 Coverag… Wide Area Survey (St…  1717       2 Anonymo… 2019-03-09 https://www…
#>  7 Coverag… Disconnection betwee…  1700       2 Tammam … 2019-03-03 https://www…
#>  8 Coverag… Can we classify the …  1878       2 Anonymo… 2018-11-18 https://www…
#>  9 Coverag… Routine monitoring d…  1780       0 Anonymo… 2018-11-14 https://www…
#> 10 Coverag… SQUEAC/coverage surv…  2172       1 Anonymo… 2018-10-05 https://www…
#> # … with 114 more rows
…
The resulting table contains information on all the discussions within the topic on Resources for coverage assessment within the thematic area of Coverage assessment including the text data on the question and the ensuing reply/replies to the question.

To get a list of discussions for a set of topics, we use the get_topics_discussions() function as follows:

get_themes() %>%
  filter(themes %in% c("Coverage assessment", "Food assistance")) %>%
  get_themes_topics() %>%
  get_topics_discussions()

which results in

#> # A tibble: 505 x 10
#>    theme  topic user  userCode job   role  date_time           type  code  post 
#>    <chr>  <chr> <chr> <chr>    <chr> <chr> <dttm>              <chr> <chr> <chr>
#>  1 Cover… Reso… Tams… user24   en-n… Foru… 2011-12-06 11:59:00 ques… 574   "Dea…
#>  2 Cover… Reso… Mark… user31   Cons… Freq… 2011-12-06 13:24:00 answ… 1536  "And…
#>  3 Cover… Reso… Erne… user999  Kati… Tech… 2011-12-22 18:02:00 answ… 1603  "Wor…
#>  4 Cover… Reso… Saul… user1000 Dire… Tech… 2012-01-11 08:59:00 answ… 1664  "And…
#>  5 Cover… Reso… Mark… user31   Cons… Freq… 2012-05-01 12:29:00 answ… 2076  "Jus…
#>  6 Cover… Reso… Erne… user999  Kati… Tech… 2012-05-26 09:48:00 answ… 2180  "We …
#>  7 Cover… Reso… Erne… user999  Kati… Tech… 2012-07-05 11:19:00 answ… 2278  "Dea…
#>  8 Cover… Reso… Mark… user31   Cons… Freq… 2012-09-17 16:40:00 answ… 2442  "Upd…
#>  9 Cover… Reso… Mark… user31   Cons… Freq… 2012-11-01 16:19:00 answ… 2615  "And…
#> 10 Cover… Reso… Mark… user31   Cons… Freq… 2013-04-30 17:19:00 answ… 3288  "The…
#> # … with 495 more rows
…
arrange_views - function to arrange topics by number of views; and,

arrange_replies - function to arrange topics by number of replies.

Counting number of topics/questions

Summarising the number of topics or questions raised within the en-net online forum is basic and useful analytics that can proxy relative importance of a thematic area within the forum. This is facilitated using the count_topics function. Counting of topics is done per thematic area and by a specific time period. Counting of topics by month and year is performed by default:

get_themes() %>%
  get_themes_topics() %>%
  count_topics()

which results in:

#> # A tibble: 843 x 4
#>    Theme                                Month  Year     n
#>    <chr>                                <fct> <dbl> <int>
#>  1 Adolescent nutrition                 Jun    2018     6
#>  2 Adolescent nutrition                 Jul    2018     2
#>  3 Adolescent nutrition                 Feb    2020     1
#>  4 Adolescent nutrition                 May    2018     1
#>  5 Adolescent nutrition                 Jun    2020     1
#>  6 Adolescent nutrition                 Aug    2018     1
#>  7 Adolescent nutrition                 Sep    2018     1
#>  8 Announcements & Nutritionists needed Aug    2015    33
#>  9 Announcements & Nutritionists needed May    2019    27
#> 10 Announcements & Nutritionists needed Jun    2015    26
#> # … with 833 more rows

Counting of topics by year is specified as follows:

get_themes() %>%
  get_themes_topics() %>%
  count_topics(by_date = "year")

which results in:

#> # A tibble: 142 x 3
#>    Theme                                 Year     n
#>    <chr>                                <dbl> <int>
#>  1 Adolescent nutrition                  2018    11
#>  2 Adolescent nutrition                  2020     2
#>  3 Announcements & Nutritionists needed  2015   196
#>  4 Announcements & Nutritionists needed  2014   165
#>  5 Announcements & Nutritionists needed  2019   135
#>  6 Announcements & Nutritionists needed  2016   130
#>  7 Announcements & Nutritionists needed  2017   129
#>  8 Announcements & Nutritionists needed  2018   126
#>  9 Announcements & Nutritionists needed  2013   101
#> 10 Announcements & Nutritionists needed  2012    82
#> # … with 132 more rows
…
By default, the output of count_topics arranges the results by descending frequency of counts of each topic by the grouping variable. This default behaviour can be changed by setting the .sorted argument to FALSE.

Counting number of topics/questions raised by an author

Summarising the number of topics or questions raised within the en-net online forum for each author is another basic and useful analytics that can proxy level of engagement by those participating in the forum. This is facilitated using the count_authors function. Counting of topics for each author is done per thematic area and by a specific time period. Counting of topics for each author by month and year is performed by default:

get_themes() %>%
  get_themes_topics() %>%
  count_authors()

which results in:

#> # A tibble: 2,491 x 5
#>    Theme                                Author           Month  Year     n
#>    <chr>                                <chr>            <fct> <dbl> <int>
#>  1 Announcements & Nutritionists needed Anonymous 1494   Jun    2015    13
#>  2 Announcements & Nutritionists needed Mark Hawkes      May    2019    13
#>  3 Announcements & Nutritionists needed Marie Lecuyer    May    2014    11
#>  4 Announcements & Nutritionists needed Anonymous 1271   May    2012     9
#>  5 Announcements & Nutritionists needed Anonymous 1494   Aug    2015     9
#>  6 COVID-19 and nutrition programming   GTAM Wasting TWG Jun    2020     9
#>  7 Announcements & Nutritionists needed Marie Lecuyer    Mar    2014     8
#>  8 Announcements & Nutritionists needed Marie Lecuyer    Jul    2014     8
#>  9 Announcements & Nutritionists needed Michael ALVES    Sep    2015     7
#> 10 Announcements & Nutritionists needed Ciara Passmore   Aug    2015     6
#> # … with 2,481 more rows

Counting of topics by year is specified as follows:

get_themes() %>%
  get_themes_topics() %>%
  count_authors(by_date = "year")

which results in:

#> # A tibble: 1,977 x 4
#>    Theme                               Author                         Year     n
#>    <chr>                               <chr>                         <dbl> <int>
#>  1 Announcements & Nutritionists need… Marie Lecuyer                  2014    47
#>  2 Announcements & Nutritionists need… Anonymous 1494                 2015    28
#>  3 Announcements & Nutritionists need… Tamsin Walters                 2015    26
#>  4 COVID-19 and nutrition programming  GTAM Wasting TWG               2020    22
#>  5 Announcements & Nutritionists need… Michael ALVES                  2015    18
#>  6 Announcements & Nutritionists need… Nutrition International - NT…  2018    18
#>  7 Announcements & Nutritionists need… Tamsin Walters                 2018    17
#>  8 Announcements & Nutritionists need… Mark Hawkes                    2019    16
#>  9 Announcements & Nutritionists need… Anonymous 1271                 2012    15
#> 10 Announcements & Nutritionists need… Marie Lecuyer                  2015    14
#> # … with 1,967 more rows

Counting of topics overall across the years is specified as follows:

get_themes() %>%
  get_themes_topics() %>%
  count_authors(by_date = "all")

which results in:

#> # A tibble: 1,535 x 3
#>    Theme                                Author                              n
#>    <chr>                                <chr>                           <int>
#>  1 Announcements & Nutritionists needed Tamsin Walters                    103
#>  2 Announcements & Nutritionists needed Marie Lecuyer                      61
#>  3 Announcements & Nutritionists needed Michael ALVES                      58
#>  4 Announcements & Nutritionists needed Anonymous 1494                     49
#>  5 Announcements & Nutritionists needed Nutrition International - NTEAM    32
#>  6 Announcements & Nutritionists needed Alan Mason                         29
#>  7 Announcements & Nutritionists needed Regine Kopplow                     26
#>  8 Announcements & Nutritionists needed Mark Hawkes                        23
#>  9 COVID-19 and nutrition programming   GTAM Wasting TWG                   22
#> 10 Assessment and Surveillance          Anonymous 81                       21
#> # … with 1,525 more rows

By default, the output of count_authors arranges the results by descending frequency of counts of each topic raised by an author by the grouping variable. This default behaviour can be changed by setting the .sorted argument to FALSE.

Arranging topics by number of views

Summarising the number of topics or questions raised within the en-net online forum by arranging them based on number of views can proxy level of interest to a specific topic by those participating in the forum. This is facilitated using the arrange_views function. Ranking of topics by number of views is done per thematic area and by a specific time period. Ranking of topics by number of views by thematic area and by month and year is performed by default:

get_themes() %>%
  get_themes_topics() %>%
  arrange_views()

which results in:

#> # A tibble: 2,980 x 9
#>    Theme   Topic          Views Author  Posted     Link      Replies Month  Year
#>    <chr>   <chr>          <int> <chr>   <date>     <chr>       <int> <fct> <dbl>
#>  1 Adoles… Age group of …   525 Anonym… 2020-02-15 https://…       1 Feb    2020
#>  2 Adoles… Launch of res…  1894 Jo Lof… 2018-05-23 https://…       0 May    2018
#>  3 Adoles… Reaching out …  2063 Emily … 2018-06-18 https://…       3 Jun    2018
#>  4 Adoles… adolescent ma…  2049 Anonym… 2018-06-21 https://…       1 Jun    2018
#>  5 Adoles… adolescent ma…  1859 Anonym… 2018-06-21 https://…       1 Jun    2018
#>  6 Adoles… anthropometry…  1814 Emily … 2018-06-29 https://…       2 Jun    2018
#>  7 Adoles… Teen/adolesce…  1751 Anne H… 2018-06-19 https://…       1 Jun    2018
#>  8 Adoles… health educat…  1532 Anonym… 2018-06-19 https://…       1 Jun    2018
#>  9 Adoles… Is there any …   820 Aisha … 2020-06-12 https://…       1 Jun    2020
#> 10 Adoles… Assessing nut…  1848 Ursula… 2018-07-25 https://…       3 Jul    2018
#> # … with 2,970 more rows

Arranging topics by number of views by thematic area and by year is performed as follows:

get_themes() %>%
  get_themes_topics() %>%
  arrange_views(by_date = "year")

which results in:

#> # A tibble: 2,980 x 9
#>    Theme    Topic        Views Author  Posted     Link       Replies Month  Year
#>    <chr>    <chr>        <int> <chr>   <date>     <chr>        <int> <fct> <dbl>
#>  1 Adolesc… Reaching ou…  2063 Emily … 2018-06-18 https://w…       3 Jun    2018
#>  2 Adolesc… adolescent …  2049 Anonym… 2018-06-21 https://w…       1 Jun    2018
#>  3 Adolesc… Launch of r…  1894 Jo Lof… 2018-05-23 https://w…       0 May    2018
#>  4 Adolesc… adolescent …  1859 Anonym… 2018-06-21 https://w…       1 Jun    2018
#>  5 Adolesc… Assessing n…  1848 Ursula… 2018-07-25 https://w…       3 Jul    2018
#>  6 Adolesc… anthropomet…  1814 Emily … 2018-06-29 https://w…       2 Jun    2018
#>  7 Adolesc… Teen/adoles…  1751 Anne H… 2018-06-19 https://w…       1 Jun    2018
#>  8 Adolesc… Adolescent …  1728 Tamsin… 2018-08-01 https://w…       3 Aug    2018
#>  9 Adolesc… adolescent …  1682 Anonym… 2018-07-04 https://w…       1 Jul    2018
#> 10 Adolesc… MUAC tape f…  1593 Anonym… 2018-09-27 https://w…       1 Sep    2018
#> # … with 2,970 more rows

Arranging topics by number of views by thematic area overall across the years is performed as follows:

get_themes() %>%
  get_themes_topics() %>%
  arrange_views(by_date = "all")

which results in:

#> # A tibble: 2,980 x 9
#>    Theme    Topic        Views Author  Posted     Link       Replies Month  Year
#>    <chr>    <chr>        <int> <chr>   <date>     <chr>        <int> <fct> <dbl>
#>  1 Adolesc… Reaching ou…  2063 Emily … 2018-06-18 https://w…       3 Jun    2018
#>  2 Adolesc… adolescent …  2049 Anonym… 2018-06-21 https://w…       1 Jun    2018
#>  3 Adolesc… Launch of r…  1894 Jo Lof… 2018-05-23 https://w…       0 May    2018
#>  4 Adolesc… adolescent …  1859 Anonym… 2018-06-21 https://w…       1 Jun    2018
#>  5 Adolesc… Assessing n…  1848 Ursula… 2018-07-25 https://w…       3 Jul    2018
#>  6 Adolesc… anthropomet…  1814 Emily … 2018-06-29 https://w…       2 Jun    2018
#>  7 Adolesc… Teen/adoles…  1751 Anne H… 2018-06-19 https://w…       1 Jun    2018
#>  8 Adolesc… Adolescent …  1728 Tamsin… 2018-08-01 https://w…       3 Aug    2018
#>  9 Adolesc… adolescent …  1682 Anonym… 2018-07-04 https://w…       1 Jul    2018
#> 10 Adolesc… MUAC tape f…  1593 Anonym… 2018-09-27 https://w…       1 Sep    2018
#> # … with 2,970 more rows

By default, the output of arrange_views is grouped by thematic area. This default behaviour can be changed by setting the by_theme argument to FALSE. For example, to arrange the topics by number of views by month and year across all themes:

get_themes() %>%
  get_themes_topics() %>%
  arrange_views(by_theme = FALSE)

which results in:

#> # A tibble: 2,980 x 9
#>    Theme      Topic         Views Author Posted     Link     Replies Month  Year
#>    <chr>      <chr>         <int> <chr>  <date>     <chr>      <int> <fct> <dbl>
#>  1 Infant an… Breastfeedin…  9082 Anony… 2010-01-07 https:/…       3 Jan    2010
#>  2 Announcem… Nutrition in…  8291 Marie… 2010-01-05 https:/…      NA Jan    2010
#>  3 Assessmen… How to Maint…  5484 Anony… 2010-01-15 https:/…       2 Jan    2010
#>  4 Assessmen… Interpretati…  8361 Tamsi… 2011-01-05 https:/…      10 Jan    2011
#>  5 Assessmen… Calculating …  7377 Ali M… 2011-01-19 https:/…       3 Jan    2011
#>  6 Assessmen… Prospective …  5825 Jeff … 2011-01-27 https:/…       7 Jan    2011
#>  7 Announcem… IYCF Consult…  5274 Aliso… 2011-01-04 https:/…      NA Jan    2011
#>  8 Announcem… Technical Su…  5220 Tamsi… 2011-01-18 https:/…      NA Jan    2011
#>  9 Cross-cut… Transitionin…  5096 Anony… 2011-01-25 https:/…       1 Jan    2011
#> 10 Assessmen… Result with …  5011 Anony… 2011-01-25 https:/…       2 Jan    2011
#> # … with 2,970 more rows

Arranging topics by number of replies

Summarising the number of topics or questions raised within the en-net online forum by arranging them based on number of replies can proxy level of interest to a specific topic by those participating in the forum specifically those who provide responses and feedback to responses within the discussion. This is facilitated using the arrange_replies function. Ranking of topics by number of replies is done per thematic area and by a specific time period. Ranking of topics by number of replies by thematic area and by month and year is performed by default:

get_themes() %>%
  get_themes_topics() %>%
  arrange_replies()

which results in:

#> # A tibble: 1,758 x 9
#>    Theme   Topic          Views Author  Posted     Link      Replies Month  Year
#>    <chr>   <chr>          <int> <chr>   <date>     <chr>       <int> <fct> <dbl>
#>  1 Adoles… Age group of …   525 Anonym… 2020-02-15 https://…       1 Feb    2020
#>  2 Adoles… Launch of res…  1894 Jo Lof… 2018-05-23 https://…       0 May    2018
#>  3 Adoles… Reaching out …  2063 Emily … 2018-06-18 https://…       3 Jun    2018
#>  4 Adoles… anthropometry…  1814 Emily … 2018-06-29 https://…       2 Jun    2018
#>  5 Adoles… adolescent ma…  2049 Anonym… 2018-06-21 https://…       1 Jun    2018
#>  6 Adoles… adolescent ma…  1859 Anonym… 2018-06-21 https://…       1 Jun    2018
#>  7 Adoles… Teen/adolesce…  1751 Anne H… 2018-06-19 https://…       1 Jun    2018
#>  8 Adoles… health educat…  1532 Anonym… 2018-06-19 https://…       1 Jun    2018
#>  9 Adoles… Is there any …   820 Aisha … 2020-06-12 https://…       1 Jun    2020
#> 10 Adoles… Assessing nut…  1848 Ursula… 2018-07-25 https://…       3 Jul    2018
#> # … with 1,748 more rows

Arranging topics by number of replies by thematic area and by year is performed as follows:

get_themes() %>%
  get_themes_topics() %>%
  arrange_replies(by_date = "year")

which results in:

#> # A tibble: 1,758 x 9
#>    Theme    Topic        Views Author  Posted     Link       Replies Month  Year
#>    <chr>    <chr>        <int> <chr>   <date>     <chr>        <int> <fct> <dbl>
#>  1 Adolesc… Adolescent …  1728 Tamsin… 2018-08-01 https://w…       3 Aug    2018
#>  2 Adolesc… Assessing n…  1848 Ursula… 2018-07-25 https://w…       3 Jul    2018
#>  3 Adolesc… Reaching ou…  2063 Emily … 2018-06-18 https://w…       3 Jun    2018
#>  4 Adolesc… anthropomet…  1814 Emily … 2018-06-29 https://w…       2 Jun    2018
#>  5 Adolesc… MUAC tape f…  1593 Anonym… 2018-09-27 https://w…       1 Sep    2018
#>  6 Adolesc… adolescent …  1682 Anonym… 2018-07-04 https://w…       1 Jul    2018
#>  7 Adolesc… adolescent …  2049 Anonym… 2018-06-21 https://w…       1 Jun    2018
#>  8 Adolesc… adolescent …  1859 Anonym… 2018-06-21 https://w…       1 Jun    2018
#>  9 Adolesc… Teen/adoles…  1751 Anne H… 2018-06-19 https://w…       1 Jun    2018
#> 10 Adolesc… health educ…  1532 Anonym… 2018-06-19 https://w…       1 Jun    2018
#> # … with 1,748 more rows
…
