Utilities to Extract Text Data from en-net • ennet
…
Getting list of topics from thematic area/s

To get a list of topics for a particular theme, we use the get_theme_topics() function as follows:

## Load dplyr to facilitate data manipulation
library(dplyr)

## Extract data from "Coverage assessment" theme
get_themes() %>%
  filter(themes == "Coverage assessment") %>%
  select(links) %>%
  as.character() %>%
  get_theme_topics()
#> # A tibble: 93 x 7
#>    Theme     Topic                  Views Replies Author   Posted  Link         
#>    <chr>     <chr>                  <chr>   <int> <chr>    <chr>   <chr>        
#>  1 Coverage… Resources for coverag… 7,347      11 Tamsin … 6 Dec … https://www.…
#>  2 Coverage… Use of single coverag… 1,086       7 Hugh Lo… 10 Nov… https://www.…
#>  3 Coverage… Real and theoretical … 835         3 Abdul    10 Oct… https://www.…
#>  4 Coverage… Single Coverage for M… 1,060       4 Ben All… 5 Jul … https://www.…
#>  5 Coverage… Cox's Bazar Refugee S… 1,298       4 Hugh Lo… 28 Mar… https://www.…
#>  6 Coverage… Wide Area Survey (Sta… 1,030       2 Anonymo… 9 Mar … https://www.…
#>  7 Coverage… Disconnection between… 1,032       2 Tammam … 3 Mar … https://www.…
#>  8 Coverage… Can we classify the p… 1,204       2 Anonymo… 18 Nov… https://www.…
#>  9 Coverage… Routine monitoring da… 1,125       0 Anonymo… 14 Nov… https://www.…
#> 10 Coverage… SQUEAC/coverage surve… 1,467       1 Anonymo… 5 Oct … https://www.…
#> # … with 83 more rows

To get a list of topics for multiple themes, we use the get_themes_topics() function as follows:

## Extract data from "Coverage assessment" theme and "Food assistance" theme
get_themes() %>%
  filter(themes %in% c("Coverage assessment", "Food assistance")) %>%
  get_themes_topics()
#> # A tibble: 123 x 7
#>    Theme     Topic                  Views Replies Author   Posted  Link         
#>    <chr>     <chr>                  <chr>   <int> <chr>    <chr>   <chr>        
#>  1 Coverage… Resources for coverag… 7,347      11 Tamsin … 6 Dec … https://www.…
#>  2 Coverage… Use of single coverag… 1,086       7 Hugh Lo… 10 Nov… https://www.…
#>  3 Coverage… Real and theoretical … 835         3 Abdul    10 Oct… https://www.…
#>  4 Coverage… Single Coverage for M… 1,060       4 Ben All… 5 Jul … https://www.…
#>  5 Coverage… Cox's Bazar Refugee S… 1,298       4 Hugh Lo… 28 Mar… https://www.…
#>  6 Coverage… Wide Area Survey (Sta… 1,030       2 Anonymo… 9 Mar … https://www.…
#>  7 Coverage… Disconnection between… 1,032       2 Tammam … 3 Mar … https://www.…
#>  8 Coverage… Can we classify the p… 1,204       2 Anonymo… 18 Nov… https://www.…
#>  9 Coverage… Routine monitoring da… 1,125       0 Anonymo… 14 Nov… https://www.…
#> 10 Coverage… SQUEAC/coverage surve… 1,467       1 Anonymo… 5 Oct … https://www.…
#> # … with 113 more rows
…
To get a list of discussions for a set of topics, we use the get_topics_discussions() function as follows:

get_themes() %>%
  filter(themes %in% c("Coverage assessment", "Food assistance")) %>%
  get_themes_topics() %>%
  get_topics_discussions()
#> # A tibble: 502 x 10
#>    theme  topic   user   userCode job     role   date_time type  code  post     
#>    <chr>  <chr>   <chr>  <chr>    <chr>   <chr>  <chr>     <chr> <chr> <chr>    
#>  1 Cover… Resour… Tamsi… user24   "en-ne… Forum… 6 Dec 20… ques… 574   "Dear al…
#>  2 Cover… Resour… Mark … user31   "Consu… Frequ… 6 Dec 20… answ… 1536  "And her…
#>  3 Cover… Resour… Ernes… user999  ""      Techn… 22 Dec 2… answ… 1603  "Worksho…
#>  4 Cover… Resour… Saul … user1000 "Direc… Techn… 11 Jan 2… answ… 1664  "And her…
#>  5 Cover… Resour… Mark … user31   "Consu… Frequ… 1 May 20… answ… 2076  "Just a …
#>  6 Cover… Resour… Ernes… user999  ""      Techn… 26 May 2… answ… 2180  "We are …
#>  7 Cover… Resour… Ernes… user999  ""      Techn… 5 Jul 20… answ… 2278  "Dear Co…
#>  8 Cover… Resour… Mark … user31   "Consu… Frequ… 17 Sep 2… answ… 2442  "Updated…
#>  9 Cover… Resour… Mark … user31   "Consu… Frequ… 1 Nov 20… answ… 2615  "And her…
#> 10 Cover… Resour… Mark … user31   "Consu… Frequ… 30 Apr 2… answ… 3288  "The Cov…
#> # … with 492 more rows
…
