Utilities to Extract Text Data from en-net • ennet
…
## Load dplyr to facilitate data manipulation
library(dplyr)

## Extract data from "Assessment and Surveillance" theme
get_themes() %>%
  filter(themes == "Assessment and Surveillance") %>%
  select(links) %>%
  as.character() %>%
  get_theme_topics()

which results in

#> # A tibble: 589 × 7
#>    Theme                       Topic       Views Replies Author Posted     Link 
#>    <chr>                       <chr>       <int>   <int> <chr>  <date>     <chr>
#>  1 Assessment and Surveillance Resources … 24529      11 Anony… 2011-12-06 http…
#>  2 Assessment and Surveillance Health nut…   126       1 Idris… 2022-07-07 http…
#>  3 Assessment and Surveillance Best suite…   134       0 Sarah  2022-06-13 http…
#>  4 Assessment and Surveillance Which indi…   160       0 Natas… 2022-06-07 http…
#>  5 Assessment and Surveillance Confoundin…   348       4 Anony… 2022-05-24 http…
#>  6 Assessment and Surveillance Is GAM a g…   543       2 Anony… 2022-04-20 http…
#>  7 Assessment and Surveillance Error mess…   894       1 Edem   2022-04-04 http…
#>  8 Assessment and Surveillance Preference…  1488       4 Anony… 2022-03-21 http…
#>  9 Assessment and Surveillance gender and…  1285       1 ISRAE… 2022-03-18 http…
#> 10 Assessment and Surveillance Generating…  1428       1 Elsie… 2022-03-11 http…
#> # … with 579 more rows
…
To get a list of topics for multiple themes, we use
the get_themes_topics() function as follows:

## Extract data from "Assessment and Surveillance" theme and "Food assistance" theme
get_themes() %>%
  filter(themes %in% c("Assessment and Surveillance", "Food assistance")) %>%
  get_themes_topics()

which results in

#> # A tibble: 622 × 7
#>    Theme                       Topic       Views Replies Author Posted     Link 
#>    <chr>                       <chr>       <int>   <int> <chr>  <date>     <chr>
#>  1 Assessment and Surveillance Resources … 24529      11 Anony… 2011-12-06 http…
#>  2 Assessment and Surveillance Health nut…   126       1 Idris… 2022-07-07 http…
#>  3 Assessment and Surveillance Best suite…   134       0 Sarah  2022-06-13 http…
#>  4 Assessment and Surveillance Which indi…   160       0 Natas… 2022-06-07 http…
#>  5 Assessment and Surveillance Confoundin…   348       4 Anony… 2022-05-24 http…
#>  6 Assessment and Surveillance Is GAM a g…   543       2 Anony… 2022-04-20 http…
#>  7 Assessment and Surveillance Error mess…   894       1 Edem   2022-04-04 http…
#>  8 Assessment and Surveillance Preference…  1488       4 Anony… 2022-03-21 http…
#>  9 Assessment and Surveillance gender and…  1285       1 ISRAE… 2022-03-18 http…
#> 10 Assessment and Surveillance Generating…  1428       1 Elsie… 2022-03-11 http…
#> # … with 612 more rows
…
To get a list of discussions for a set of
topics, we use the
get_topics_discussions() function as follows:

get_themes() %>%
  filter(themes %in% c("Assessment and Surveillance", "Food assistance")) %>%
  get_themes_topics() %>%
  get_topics_discussions()

which results in

#> # A tibble: 3,135 × 10
#>    theme  topic user  userCode job   role  date_time           type  code  post 
#>    <chr>  <chr> <chr> <chr>    <chr> <chr> <dttm>              <chr> <chr> <chr>
#>  1 Asses… Reso… Anon… user24   ""    Foru… 2011-12-06 11:59:00 ques… 574   "Dea…
#>  2 Asses… Reso… Mark… user31   ""    Freq… 2011-12-06 13:24:00 answ… 1536  "And…
#>  3 Asses… Reso… Erne… user999  "Kat… Freq… 2011-12-22 18:02:00 answ… 1603  "Wor…
#>  4 Asses… Reso… Saul… user1000 "Dir… Freq… 2012-01-11 08:59:00 answ… 1664  "And…
#>  5 Asses… Reso… Mark… user31   ""    Freq… 2012-05-01 12:29:00 answ… 2076  "Jus…
#>  6 Asses… Reso… Erne… user999  "Kat… Freq… 2012-05-26 09:48:00 answ… 2180  "We …
#>  7 Asses… Reso… Erne… user999  "Kat… Freq… 2012-07-05 11:19:00 answ… 2278  "Dea…
#>  8 Asses… Reso… Mark… user31   ""    Freq… 2012-09-17 16:40:00 answ… 2442  "Upd…
#>  9 Asses… Reso… Mark… user31   ""    Freq… 2012-11-01 16:19:00 answ… 2615  "And…
#> 10 Asses… Reso… Mark… user31   ""    Freq… 2013-04-30 17:19:00 answ… 3288  "The…
#> # … with 3,125 more rows
…
