Create monthly topics dataset for the ennet_db — create_db_topics_monthly • ennet
…
    Value

    A tibble of monthly topics dataset created from data in the
ennet_db

    Author

    Ernest Guevarra

    Examples

create_db_topics_monthly(.date = "2021-01-03")

#> # A tibble: 3,033 x 143
#>    Theme   Topic       Author   Posted Link    Views_20210101_… Replies_2021010…
#>    <chr>   <chr>       <chr>    <chr>  <chr>              <int>            <int>
#>  1 Adoles… adolescent… Anonymo… 2018-… https:…             2008                1
#>  2 Adoles… adolescent… Anonymo… 2018-… https:…             2197                1
#>  3 Adoles… adolescent… Anonymo… 2018-… https:…             1823                1
#>  4 Adoles… Adolescent… Tamsin … 2018-… https:…             1879                3
#>  5 Adoles… Age group … Anonymo… 2020-… https:…              678                1
#>  6 Adoles… anthropome… Emily M… 2018-… https:…             1971                2
#>  7 Adoles… Assessing … Ursula … 2018-… https:…             1998                3
#>  8 Adoles… health edu… Anonymo… 2018-… https:…             1682                1
#>  9 Adoles… Is there a… Aisha F… 2020-… https:…              982                1
#> 10 Adoles… Launch of … Jo Loft… 2018-… https:…             2046                0
#> # … with 3,023 more rows, and 136 more variables: Views_20210101_021536 <int>,
#> #   Replies_20210101_021536 <int>, Views_20210101_032704 <int>,
#> #   Replies_20210101_032704 <int>, Views_20210101_042609 <int>,
#> #   Replies_20210101_042609 <int>, Views_20210101_052611 <int>,
#> #   Replies_20210101_052611 <int>, Views_20210101_061918 <int>,
#> #   Replies_20210101_061918 <int>, Views_20210101_072647 <int>,
#> #   Replies_20210101_072647 <int>, Views_20210101_082054 <int>,
#> #   Replies_20210101_082054 <int>, Views_20210101_092519 <int>,
#> #   Replies_20210101_092519 <int>, Views_20210101_102418 <int>,
…
