Create a daily topics dataset for the ennet_db — create_db_topics_daily • ennet
…
    Author

    Ernest Guevarra

    Examples

##
fn <- c("ennet_topics_2021-01-17_00:54:48.csv",
        "ennet_topics_2021-01-17_02:48:38.csv",
        "ennet_topics_2021-01-17_03:57:46.csv")

create_db_topics_daily(.date = Sys.Date(), fn = fn)

#> # A tibble: 3,045 x 11
#>    Theme Topic Author Posted Link  Views_20210117_… Replies_2021011…
#>    <chr> <chr> <chr>  <chr>  <chr>            <int>            <int>
#>  1 Anno… "Vac… Anony… 2021-… http…              250               NA
#>  2 Anno… "REA… Saeed… 2021-… http…              139               NA
#>  3 Anno… "New… Katie… 2021-… http…              129               NA
#>  4 Anno… "Eve… Sylvi… 2021-… http…              168               NA
#>  5 Anno… "TAS… Rita … 2021-… http…              142               NA
#>  6 Anno… "ENN… Offic… 2020-… http…              168               NA
#>  7 Anno… "Cal… Tamsi… 2020-… http…              219               NA
#>  8 Anno… "ENN… Offic… 2020-… http…              209               NA
#>  9 Anno… "Vac… Valen… 2020-… http…              355               NA
#> 10 Anno… "Ag-… Sylvi… 2020-… http…              225               NA
#> # … with 3,035 more rows, and 4 more variables: Views_20210117_024838 <int>,
#> #   Replies_20210117_024838 <int>, Views_20210117_035746 <int>,
#> #   Replies_20210117_035746 <int>

create_db_topics_monthly()

#> # A tibble: 3,063 x 727
#>    Theme Topic Author Posted Link  Views_20210101_… Replies_2021010…
#>    <chr> <chr> <chr>  <chr>  <chr>            <int>            <int>
#>  1 Anno… ENN … Offic… 2020-… http…               99               NA
#>  2 Anno… Call… Tamsi… 2020-… http…              127               NA
#>  3 Anno… ENN … Offic… 2020-… http…              135               NA
#>  4 Anno… Vaca… Valen… 2020-… http…              233               NA
#>  5 Anno… Ag-n… Sylvi… 2020-… http…              156               NA
#>  6 Anno… ENN … Offic… 2020-… http…              196               NA
#>  7 Anno… Invi… Offic… 2020-… http…              535               NA
#>  8 Anno… IYCF… Valer… 2020-… http…              212               NA
#>  9 Anno… REAC… Saeed… 2020-… http…              290               NA
#> 10 Anno… IRC … Casie… 2020-… http…              244               NA
#> # … with 3,053 more rows, and 720 more variables: Views_20210101_021536 <int>,
#> #   Replies_20210101_021536 <int>, Views_20210101_032704 <int>,
#> #   Replies_20210101_032704 <int>, Views_20210101_042609 <int>,
#> #   Replies_20210101_042609 <int>, Views_20210101_052611 <int>,
#> #   Replies_20210101_052611 <int>, Views_20210101_061918 <int>,
#> #   Replies_20210101_061918 <int>, Views_20210101_072647 <int>,
#> #   Replies_20210101_072647 <int>, Views_20210101_082054 <int>,
#> #   Replies_20210101_082054 <int>, Views_20210101_092519 <int>,
#> #   Replies_20210101_092519 <int>, Views_20210101_102418 <int>,
…
