ennet dataset — ennet_dataset • ennet
…
typeWhether a question or an answer

codeCode for the question/topic or answer

postThe question/topic raised or the answer provided

    Source

    https://www.en-net.org

    Examples

ennet_dataset

#> # A tibble: 8,650 x 10
#>    theme  topic user  userCode job   role  date_time           type  code  post 
#>    <chr>  <chr> <chr> <chr>    <chr> <chr> <dttm>              <chr> <chr> <chr>
#>  1 Annou… "Job… Abel… user363… ""    Norm… 2020-09-29 10:08:00 ques… 4095  "The…
#>  2 Annou… "Web… Alex… user107… "Hea… Norm… 2020-09-21 22:25:00 ques… 4089  "Kwa…
#>  3 Annou… "Sav… Paul… user404… "Dep… Norm… 2020-09-18 11:42:00 ques… 4087  "Sav…
#>  4 Annou… "Con… Nutr… user217… ""    Norm… 2020-09-16 04:39:00 ques… 4083  "Rea…
#>  5 Annou… "Nut… HR C… user404… ""    Norm… 2020-09-15 17:37:00 ques… 4082  "Rep…
#>  6 Annou… "WHO… Tams… user24   "en-… Foru… 2020-09-15 12:12:00 ques… 4081  "Ple…
#>  7 Annou… "Cal… Tams… user24   "en-… Foru… 2020-09-15 09:22:00 ques… 4080  "htt…
#>  8 Annou… "Cal… Tams… user24   "en-… Foru… 2020-09-18 17:19:00 answ… 7851  "The…
#>  9 Annou… "Rec… Nutr… user217… ""    Norm… 2020-09-01 14:44:00 ques… 4074  "SEN…
#> 10 Annou… "Rec… Nutr… user217… ""    Norm… 2020-09-01 14:31:00 ques… 4073  "Ass…
#> # … with 8,640 more rows
…
