Get theme topics — get_themes_topics • ennet
…
    A tibble of all topics across all thematic areas with their
  respective URLs

    Examples

themes <- get_themes()
get_themes_topics(themes = themes[1:3, ])
#> New names:
#> * `` -> ...1
#> New names:
#> * `` -> ...1
#> New names:
#> * `` -> ...1
#> # A tibble: 1,711 x 7
#>    Theme      Topic            Views Author            Posted Link       Replies
#>    <chr>      <chr>            <chr> <chr>             <chr>  <chr>        <int>
#>  1 Announcem… ENN Senior Nutr… 430   Office ENN        18 Ju… https://w…      NA
#>  2 Announcem… Nutrition Advis… 67    Sajia Mehjabeen   9 Jul… https://w…      NA
#>  3 Announcem… Consultancy opp… 371   Nutrition Intern… 9 Jul… https://w…      NA
#>  4 Announcem… Consulting oppo… 37    Nutrition Intern… 9 Jul… https://w…      NA
#>  5 Announcem… 30th June ENN W… 117   Tamsin Walters    26 Ju… https://w…      NA
#>  6 Announcem… Survey Team Lea… 213   Philip McKinney   12 Ju… https://w…      NA
#>  7 Announcem… GTAM website     188   Natalie Sessions  9 Jun… https://w…      NA
#>  8 Announcem… ENN: MAMI Globa… 614   Office ENN        3 Jun… https://w…      NA
#>  9 Announcem… Webinar: Power … 1,002 Abel Endashaw     29 Ma… https://w…      NA
#> 10 Announcem… ANH2020          262   Abel Endashaw     28 Ma… https://w…      NA
#> # … with 1,701 more rows
…
